^C:\USERS\SGA\DOCUMENTS\GITHUB\SGA3DSECOND\SGA2\SGATESTONE\BS.CPP|C:\USERS\SGA\DOCUMENTS\GITHUB\SGA3DSECOND\SGA2\SGATESTONE\DS.CPP|C:\USERS\SGA\DOCUMENTS\GITHUB\SGA3DSECOND\SGA2\SGATESTONE\JY.CPP|C:\USERS\SGA\DOCUMENTS\GITHUB\SGA3DSECOND\SGA2\SGATESTONE\MS.CPP|C:\USERS\SGA\DOCUMENTS\GITHUB\SGA3DSECOND\SGA2\SGATESTONE\SGATESTONE.CPP
C:\USERS\SGA\DOCUMENTS\GITHUB\SGA3DSECOND\SGA2\SGATESTONE\X64\DEBUG\VC141.PDB
C:\USERS\SGA\DOCUMENTS\GITHUB\SGA3DSECOND\SGA2\SGATESTONE\X64\DEBUG\VC141.IDB
C:\USERS\SGA\DOCUMENTS\GITHUB\SGA3DSECOND\SGA2\SGATESTONE\X64\DEBUG\SGATESTONE.OBJ
C:\USERS\SGA\DOCUMENTS\GITHUB\SGA3DSECOND\SGA2\SGATESTONE\X64\DEBUG\MS.OBJ
C:\USERS\SGA\DOCUMENTS\GITHUB\SGA3DSECOND\SGA2\SGATESTONE\X64\DEBUG\JY.OBJ
C:\USERS\SGA\DOCUMENTS\GITHUB\SGA3DSECOND\SGA2\SGATESTONE\X64\DEBUG\DS.OBJ
C:\USERS\SGA\DOCUMENTS\GITHUB\SGA3DSECOND\SGA2\SGATESTONE\X64\DEBUG\BS.OBJ
^C:\USERS\SGA\DOCUMENTS\GITHUB\SGA3DSECOND\SGA2\SGATESTONE\BS.CPP
C:\USERS\SGA\DOCUMENTS\GITHUB\SGA3DSECOND\SGA2\SGATESTONE\X64\DEBUG\VC141.PDB
^C:\USERS\SGA\DOCUMENTS\GITHUB\SGA3DSECOND\SGA2\SGATESTONE\DS.CPP
C:\USERS\SGA\DOCUMENTS\GITHUB\SGA3DSECOND\SGA2\SGATESTONE\X64\DEBUG\VC141.PDB
^C:\USERS\SGA\DOCUMENTS\GITHUB\SGA3DSECOND\SGA2\SGATESTONE\JY.CPP
C:\USERS\SGA\DOCUMENTS\GITHUB\SGA3DSECOND\SGA2\SGATESTONE\X64\DEBUG\VC141.PDB
^C:\USERS\SGA\DOCUMENTS\GITHUB\SGA3DSECOND\SGA2\SGATESTONE\SGATESTONE.CPP
C:\USERS\SGA\DOCUMENTS\GITHUB\SGA3DSECOND\SGA2\SGATESTONE\X64\DEBUG\VC141.PDB
^C:\USERS\SGA\DOCUMENTS\GITHUB\SGA3DSECOND\SGA2\SGATESTONE\MS.CPP
C:\USERS\SGA\DOCUMENTS\GITHUB\SGA3DSECOND\SGA2\SGATESTONE\X64\DEBUG\VC141.PDB
C:\USERS\SGA\DOCUMENTS\GITHUB\SGA3DSECOND\SGA2\SGATESTONE\X64\DEBUG\VC141.IDB
C:\USERS\SGA\DOCUMENTS\GITHUB\SGA3DSECOND\SGA2\SGATESTONE\X64\DEBUG\MS.OBJ
